…
If a Legendary, what gender is more likely?

#### Well, that’s disappointing. Of the four legendary, they are more likely to be male pokemon. That’s kind of dampered my mood, speaking of mood… Let’s break down the different information based on the mood of the pokemon.

``` r
# Finding Average Capture Rate With each mood
df_speciesINFO %>%
  select(MOOD, CAPTURE_RATE) %>%  
  group_by(MOOD) %>%  
  mutate(AVG_CR = mean(CAPTURE_RATE))
```

    ## # A tibble: 151 x 3
    ## # Groups:   MOOD [4]
    ##    MOOD    CAPTURE_RATE AVG_CR
    ##    <chr>          <dbl>  <dbl>
    ##  1 CONTENT           45   112.
    ##  2 CONTENT           45   112.
    ##  3 CONTENT           45   112.
    ##  4 CONTENT           45   112.
    ##  5 CONTENT           45   112.
    ##  6 CONTENT           45   112.
    ##  7 CONTENT           45   112.
    ##  8 CONTENT           45   112.
    ##  9 CONTENT           45   112.
    ## 10 CONTENT          255   112.
    ## # ... with 141 more rows
…
